{
  "family": "growth-chart-app-test",
  "containerDefinitions": [
    {
      "name": "growth-chart-app-test",
      "image": "hspconsortium/growth-chart-app:0.3.0-SNAPSHOT",
      "cpu": 0,
      "portMappings": [
        {
          "containerPort": 9000,
          "hostPort": 0,
          "protocol": "tcp"
        }
      ],
      "memoryReservation": 100,
      "logConfiguration": {
        "logDriver": "awslogs",
        "options": {
          "awslogs-group": "/ecs/growth-chart-app-test",
          "awslogs-region": "us-west-2",
          "awslogs-stream-prefix": "ecs"
        }
      },
      "essential": true,
      "environment": [
        {
          "name": "JASYPT_ENCRYPTOR_PASSWORD",
          "value": ""
        },
        {
          "name": "SPRING_PROFILES_ACTIVE",
          "value": ""
        },
        {
          "name": "TARGET_ENV",
          "value": "test"
        }
      ]
    }
  ]
}
